[{
  "relation": ["delegate_permission/common.handle_all_urls"],
  "target": {
    "namespace": "android_app",
    "package_name": "com.binariks.simpleinstanceapp",
    "sha256_cert_fingerprints":
    ["B1:86:FD:37:11:F6:98:B1:E6:91:FB:30:B4:64:63:45:35:12:76:29:83:11:23:27:93:9F:83:20:C2:32:49:93"]
  }
}]